{
  "project_info": {
    "project_number": "189774602406",
    "firebase_url": "https://plrsafetywearapp.firebaseio.com",
    "project_id": "plrsafetywearapp",
    "storage_bucket": "plrsafetywearapp.appspot.com"
  },
  "client": [
    {
      "client_info": {
        "mobilesdk_app_id": "1:189774602406:android:92e5728bc83982f62e9467",
        "android_client_info": {
          "package_name": "com.sathya.plrsafetywearapp"
        }
      },
      "oauth_client": [
        {
          "client_id": "189774602406-bq3kpcnc5muiqfvom07bclvuhip3aovi.apps.googleusercontent.com",
          "client_type": 3
        }
      ],
      "api_key": [
        {
          "current_key": "AIzaSyCkl37c6HPNZaaiMRKop4A804wya4mMK2I"
        }
      ],
      "services": {
        "appinvite_service": {
          "other_platform_oauth_client": [
            {
              "client_id": "189774602406-bq3kpcnc5muiqfvom07bclvuhip3aovi.apps.googleusercontent.com",
              "client_type": 3
            }
          ]
        }
      }
    }
  ],
  "configuration_version": "1"
}